{
  "curPage": 2,
  "datas": [
    {
      "apkLink": "",
      "audit": 1,
      "author": "",
      "canEdit": false,
      "chapterId": 173,
      "chapterName": "Choreographer",
      "collect": false,
      "courseId": 13,
      "desc": "",
      "descMd": "",
      "envelopePic": "",
      "fresh": false,
      "id": 14260,
      "link": "https://mp.weixin.qq.com/s/sZ-v3hV7IkBjwFSYzAM3iw",
      "niceDate": "2天前",
      "niceShareDate": "2020-07-11 16:56",
      "origin": "",
      "prefix": "",
      "projectLink": "",
      "publishTime": 1594569080000,
      "realSuperChapterId": 152,
      "selfVisible": 0,
      "shareDate": 1594457767000,
      "shareUser": "simowce",
      "superChapterId": 173,
      "superChapterName": "framework",
      "tags": [],
      "title": "或许是迄今为止第一篇讲解 fps 计算原理的文章吧",
      "type": 0,
      "userId": 69736,
      "visible": 1,
      "zan": 0
    }
  ],
  "offset": 20,
  "over": false,
  "pageCount": 443,
  "size": 20,
  "total": 8857
}